/jiracloud/jira-cloud-for-developers-39375886.html, /cloud/jira/platform/jira-cloud-for-developers/
/jiracloud/getting-started-39988011.html, /cloud/jira/platform/getting-started/
/jiracloud/jira-cloud-development-platform-39981102.html, /cloud/jira/platform/jira-cloud-development-platform/
/jiracloud/integrate-with-the-jira-ui-using-atlassian-connect-39990073.html, /cloud/jira/platform/integrate-with-the-jira-ui-using-atlassian-connect/
/jiracloud/authentication-and-authorization-39990700.html, /cloud/jira/platform/authentication-and-authorization/
/jiracloud/jira-rest-api-basic-authentication-39991466.html, /cloud/jira/platform/jira-rest-api-basic-authentication/
/jiracloud/jira-rest-api-cookie-based-authentication-39991470.html, /cloud/jira/platform/jira-rest-api-cookie-based-authentication/
/jiracloud/jira-rest-api-oauth-authentication-39991476.html, /cloud/jira/platform/jira-rest-api-oauth-authentication/
/jiracloud/jira-cloud-platform-rest-api-39987036.html, /cloud/jira/platform/jira-cloud-platform-rest-api/
/jiracloud/webhooks-39987038.html, /cloud/jira/platform/webhooks/
/jiracloud/jira-platform-modules-39987040.html, /cloud/jira/platform/jira-platform-modules/
/jiracloud/jira-platform-modules-administration-console-39988333.html, /cloud/jira/platform/jira-platform-modules-administration-console/
/jiracloud/jira-platform-modules-project-configuration-39988366.html, /cloud/jira/platform/jira-platform-modules-project-configuration/
/jiracloud/jira-platform-modules-user-accessible-locations-39988374.html, /cloud/jira/platform/jira-platform-modules-user-accessible-locations/
/jiracloud/jira-platform-modules-view-issue-page-39988380.html, /cloud/jira/platform/jira-platform-modules-view-issue-page/
/jiracloud/jira-entity-properties-39988397.html, /cloud/jira/platform/jira-entity-properties/
/jiracloud/jira-platform-tutorials-39987044.html, /cloud/jira/platform/jira-platform-tutorials/
/jiracloud/guide-using-the-issue-field-module-40501522.html, /cloud/jira/platform/guide-using-the-issue-field-module/
/jiracloud/latest-updates-39988013.html, /cloud/jira/platform/index/
/jiracloud/support-39988134.html, /cloud/jira/platform/support/
/jiracloud/jira-service-desk-cloud-development-39981106.html, /cloud/jira/service-desk/index/
/jiracloud/jira-service-desk-cloud-rest-api-39988033.html, /cloud/jira/service-desk/jira-service-desk-cloud-rest-api/
/jiracloud/jira-service-desk-webhooks-39988324.html, /cloud/jira/service-desk/automation-webhooks/
/jiracloud/jira-service-desk-ui-modules-39988267.html, /cloud/jira/service-desk/jira-service-desk-ui-modules/
/jiracloud/jira-service-desk-modules-agent-view-39988009.html, /cloud/jira/service-desk/jira-service-desk-modules-agent-view/
/jiracloud/jira-service-desk-modules-customer-portal-39988271.html, /cloud/jira/service-desk/jira-service-desk-modules-customer-portal/
/jiracloud/jira-service-desk-modules-web-item-target-40004227.html, /cloud/jira/service-desk/jira-service-desk-modules-web-item-target/
/jiracloud/jira-service-desk-context-parameters-39988330.html, /cloud/jira/service-desk/jira-service-desk-context-parameters/
/jiracloud/guide-exploring-the-jira-service-desk-domain-model-via-the-rest-apis-39990278.html, /cloud/jira/service-desk/guide-exploring-the-jira-service-desk-domain-model-via-the-rest-apis/
/jiracloud/guide-creating-jira-service-desk-requests-from-twitter-40000561.html, /cloud/jira/service-desk/guide-creating-jira-service-desk-requests-from-twitter/
/jiracloud/guide-extending-the-agent-view-via-the-jira-platform-39988302.html, /cloud/jira/service-desk/guide-extending-the-agent-view-via-the-jira-platform/
/jiracloud/jira-software-cloud-development-39981104.html, /cloud/jira/software/index/
/jiracloud/jira-software-webhooks-39990316.html, /cloud/jira/software/jira-software-webhooks/
/jiracloud/jira-software-ui-modules-39987281.html, /cloud/jira/software/jira-software-ui-modules/
/jiracloud/jira-software-modules-boards-39990330.html, /cloud/jira/software/jira-software-modules-boards/
/jiracloud/jira-software-context-parameters-39990789.html, /cloud/jira/software/jira-software-context-parameters/
/jiracloud/tutorial-adding-a-board-configuration-page-39990300.html, /cloud/jira/software/tutorial-adding-a-board-configuration-page/
/jiracloud/tutorial-adding-a-dropdown-to-an-agile-board-39990287.html, /cloud/jira/software/tutorial-adding-a-dropdown-to-an-agile-board/
/jiracloud/41746521.html, /cloud/jira/platform/deprecation-notice-removal-of-comment-object-data-in-jira-issue-webhooks/
/jiracloud/change-notice-changelogs-are-now-limited-to-the-100-most-recent-items-41747134.html, /cloud/jira/platform/change-notice-changelogs-are-now-limited-to-the-100-most-recent-items/
/jiracloud/41225789.html, /cloud/jira/platform/deprecation-notice-worklog-data-in-issue-related-events-for-webhooks/
/jiracloud/guide-creating-your-own-branded-customer-portal-41224344.html, /cloud/jira/service-desk/guide-creating-your-own-branded-customer-portal/
/jiracloud/guide-implementing-automation-actions-41223090.html, /cloud/jira/service-desk/guide-implementing-automation-actions/
/jiracloud/jira-service-desk-automation-action-module-41222507.html, /cloud/jira/service-desk/jira-service-desk-automation-action-module/
/jiracloud/jira-service-desk-modules-39988267.html, /cloud/jira/service-desk/jira-service-desk-modules/
/jiracloud/jira-service-desk-modules-portal-icon-41229857.html, /cloud/jira/service-desk/jira-service-desk-modules-portal-icon/
/jiracloud/jira-software-modules-39987281.html, /cloud/jira/software/jira-software-modules/
